<?xml version="1.0" encoding="UTF-8" standalone="no"?>
<svg
   xmlns:dc="http://purl.org/dc/elements/1.1/" xmlns:cc="http://creativecommons.org/ns#" xmlns:rdf="http://www.w3.org/1999/02/22-rdf-syntax-ns#" xmlns:svg="http://www.w3.org/2000/svg" xmlns="http://www.w3.org/2000/svg"
   viewBox="0 0 135 135" height="135" width="135" xml:space="preserve" version="1.1">
  <g style="display:inline">
    <circle r="32.5" cy="67.5" cx="67.375" style="display:inline;fill:#404040;fill-opacity:1" />
    <rect y="51.755924" x="66.304939" height="23.511084" width="13.917578" style="display:inline;fill:#ffffff;fill-opacity:1" />
    <path d="m 64.32644,83.090013 0,-31.040353 -12.936615,0 0,31.040353 12.936615,0 z" style="display:inline;fill:#007200;fill-opacity:1" />
    <path style="fill:#007200;fill-opacity:1" d="m 67.834377,43.536608 0,14.676598 5.13928,-3.144983 5.139297,3.144983 0,-14.676598" />
    <path d="m 51.388196,82.411938 0,-4.19351 -4.109877,0 0,4.19351 4.109877,0 z" style="fill:#ffffff;fill-opacity:1" />
    <path d="m 51.384759,69.827352 0,-4.193511 -4.109878,0 0,4.193511 4.109878,0 z" style="fill:#ffffff;fill-opacity:1" />
    <path d="m 51.365056,57.268013 0,-4.19351 -4.109877,0 0,4.19351 4.109877,0 z" style="fill:#ffffff;fill-opacity:1" />
    <path d="m 55.500282,46.770229 c -2.261285,0 -4.111623,1.864446 -4.111623,4.191735 l 0,2.099419 4.111623,0 0,4.19351 -4.111623,0 0,8.385244 4.111623,0 0,1.705112 0,2.486627 -4.111623,0 0,8.387016 4.111623,0 0,4.193512 -4.111623,0 0,2.097643 c 0,2.201505 1.953125,4.191739 4.111623,4.191739 l 24.669735,0 c 2.158498,0 4.111625,-1.990234 4.111625,-4.191739 l 0,-17.164798 0,-16.383285 c 0,-2.20149 -1.953127,-4.191735 -4.111625,-4.191735 l -2.056682,0 0,14.678176 -5.139092,-3.145578 -5.139092,3.145578 0,-14.678176 -12.334869,0 z" style="fill:#99cc33" />
  </g>
</svg>